%YAML 1.1
%TAG !u! tag:unity3d.com,2011:
--- !u!114 &11400000
MonoBehaviour:
  m_ObjectHideFlags: 0
  m_CorrespondingSourceObject: {fileID: 0}
  m_PrefabInstance: {fileID: 0}
  m_PrefabAsset: {fileID: 0}
  m_GameObject: {fileID: 0}
  m_Enabled: 1
  m_EditorHideFlags: 0
  m_Script: {fileID: 11500000, guid: fb4b6a3f3bdf88142a1971428f726e67, type: 3}
  m_Name: ScenesLoader
  m_EditorClassIdentifier: 
  fadeDuration: 1
  menuSceneName: Menu_Scene
  gameSceneName: Game_Scene
  loadingWindow: {fileID: 5227361127330417580, guid: 5f892812bc2d9134db723569ec69596c,
    type: 3}
